{
  "name": "Desktop Clock",
  "description": "Add a clock to the desktop!",
  "uuid": "azclock@azclock.gitlab.com",
  "gettext-domain": "azclock",
  "settings-schema": "org.gnome.shell.extensions.azclock",
  "version": 4,
  "shell-version": ["42", "43"],
  "url": "https://gitlab.com/AndrewZaech/azclock"
}
